...............
----------------------------------------------------------------------
Ran 15 tests in 0.052s

OK
Name             Stmts   Miss Branch BrPart  Cover   Missing
------------------------------------------------------------
Collatz.py          35      0     12      0   100%
TestCollatz.py      66      0      0      0   100%
------------------------------------------------------------
TOTAL              101      0     12      0   100%
