1 10 20
100 200 125
201 210 89
900 1000 174
699 619 145
796 647 171
288 414 144
683 119 145
166 110 122
68 264 128
12 251 128
278 195 128
779 611 171
84 381 144
268 462 144
337 420 134
766 634 171
19 367 144
202 521 144
592 393 142
628 853 171
676 668 114
89 243 128
516 518 124
731 597 171
101 232 128
3 98 119
812 168 171
407 590 142
146 464 144
218 473 144
877 804 179
878 439 179
790 589 171
616 387 142
705 135 171
240 689 145
18 502 144
159 271 128
844 416 171
673 435 145
401 596 142
628 760 171
888 750 179
781 373 171
770 666 171
169 399 144
43 500 144
203 400 144
18 29 112
620 387 142
891 293 179
817 52 171
147 640 144
515 31 144
206 636 144
428 90 144
428 325 144
379 402 121
11 273 128
286 829 171
8 745 171
238 37 128
896 451 179
376 176 144
253 830 171
98 579 144
438 620 142
231 585 144
817 688 171
769 517 171
291 830 171
508 14 144
674 564 145
131 333 144
344 323 144
774 619 171
128 58 119
875 840 179
696 280 145
765 381 171
347 169 144
286 148 128
382 408 121
247 627 144
375 370 46
300 340 144
511 489 142
751 439 171
236 135 128
766 201 171
894 884 148
263 282 123
234 101 128
894 320 179
93 857 171
165 195 125
547 650 145
692 768 171
103 738 171
557 276 144
179 118 125
821 524 171
287 350 144
3000 4343 238
323 1111 179
