1 10 20
100 200 125
201 210 89
900 1000 174
800 900 179
900 1000 174
2 10 20
10 2 20
3 6 9
70 87 116
70 200 125
576 837 171
885 995 174
996 135 179
749 908 179
373 7239 262
939 3939 238
576 938 179
333 883 179
883 338 179
798 333 171
534 636 137
2345 3462 217
4635 6346 262
6342 6346 81
444 667 145
2029 4939 238
202 483 144
200 939 179
666 666 114
1 1 1
920 938 174
12 294 128
948 29 179
2 6 9
345 788 171
33 33 27
3901 4843 215
345 6346 262
2346 634 183
643 354 142
846 465 171
573 437 142
456 688 145
23 43 112
193 389 144
234 354 144
624 234 144
9283 927 262
239 3838 238
123 432 144
234 643 144
354 745 171
987 383 179
234 893 179
882 234 179
983 574 179
234 987 179
234 684 145
847 847 34
292 292 118
443 272 144
987 345 179
711 1 171
1 9 20
9 1 20
1 1 1
348 980 179
974 282 179
999 234 179
123 543 144
182 493 144
181 484 144
43 34 110
643 282 144
191 938 179
23 32 112
14 41 112
41 41 110
41 14 112
122 221 125
11 33 112
33 11 112
11 11 15
888 342 179
234 123 128
452 522 142
311 634 144
123 524 144
24 63 113
24 13 21
52 63 113
24 63 113
24 34 112
54 243 128
643 234 144
123 534 144
235 63 128
23 67 113
76 23 116
12 45 112
