1 10 20
100 200 125
201 210 89
900 1000 174
1 1 1
1 5 8
1 10 20
1 100 119
1 1000 179
1 10000 262
1 99999 351
10 5 20
10 15 18
10 245 128
10 3333 217
10 25000 282
10 99999 351
1000 20 179
1000 200 179
1000 250 179
1000 1000 112
1000 20000 279
1000 99999 351
2500 99999 351
50000 10000 324
50000 99999 351
4 4444 238
4 2 8
4 16 20
4 64 113
4 256 128
4 1444 182
5 25 24
5 125 119
5 3125 217
6 36 112
6 216 125
6 1296 182
6 7776 262
6 46656 324
46656 6 324
9 81 116
9 729 171
9 6561 262
9 59049 340
11 13 15
11 143 122
11 1001 179
11 10010 262
11 99999 351
15 2500 209
15 15 18
15 8500 262
20 100 119
20 5000 238
20 10200 262
10200 20 262
150 100 122
1501 2000 180
200 201 27
450 501 142
450 5000 238
600 750 171
1001 1001 143
1001 10000 262
1001 99999 351
2500 5600 238
50000 99999 351
50000 100000 351
987 654 179
357 125 144
9009 9001 141
21 211 125
8000 1001 262
17 17 13
2000 1804 175
73 32 116
108 105 114
49 1001 179
5050 5055 179
6900 10000 260
1 99 119
4 444 144
7 77777 351
99999 80000 333
5200 10000 262
101 1056 179
101 101 26
8752 95463 351
12001 12000 144
84500 1500 351
16 3500 217
11210 81019 351
7115 10113 260
114 10199 262
111 118 70
10111 413 262
1031 11497 268
110 10011 262
29 713 171
102 1111 179
14 13 18
11111 7114 268
32 115 119
97 107 119
10 113 119
