.......
----------------------------------------------------------------------
Ran 11 tests in 0.085s

OK
Name             Stmts   Miss Branch BrPart  Cover   Missing
------------------------------------------------------------
Collatz.py          33      1     14      1    96%   51->52, 52
TestCollatz.py      44      0      0      0   100%
------------------------------------------------------------
TOTAL               77      1     14      1    98%