1 10 20
100 200 125
201 210 89
900 1000 174
2 2 2
5 10 20
2 1596 182
99 9999 262
1 1999 182
5 6 9
7 10 20
1 98746 351
20 20 8
9999 9999 92
340 3000 217
3000 340 217
500 101 144
1 1 1
9999 9998 92
43558 65566 340
539 97560 351
1 10 20
2 10 20
3 10 20
4 10 20
1 10000 262
2 10000 262
3 10000 262
4 10000 262
1234 54321 340
1234 43141 324
9854 58069 340
39481 72164 340
987 23934 282
98628 71857 351
3618 43677 324
19460 92443 351
91622 23947 351
52621 52569 216
54910 54973 216
78205 78263 201
42222 42291 288
28542 28524 197
47872 49285 296
48561 48957 296
74821 74821 64
82384 82488 307
35961 35894 218
38864 38844 231
98128 91459 333
83077 83487 258
65472 64612 268
24015 24624 251
53347 53633 322
54505 54167 260
85070 85113 227
97562 96960 297
31962 32868 267
56495 59981 304
83101 83011 227
78445 72843 351
85971 85331 302
99394 99498 204
97565 95228 297
68738 60880 335
78633 78051 307
78068 70732 351
36174 31163 324
21481 26858 308
90012 90902 315
98442 98450 160
93890 93144 284
78886 79387 307
91954 91999 209
57642 57516 273
91554 91639 253
28588 28580 197
91365 18704 351
82754 87930 333
85429 85334 258
73759 37960 340
80210 80518 320
94713 97143 328
45686 45519 239
72712 72761 250
74706 74556 232
46547 46324 283
38450 84850 351
29490 2384 308
95679 95606 235
82611 82583 183
75613 76776 307
47862 47101 314
81592 81933 289
71922 71915 188
92939 92900 209
94851 98681 328
49108 49102 190
50416 50852 278
60412 64712 335
43609 43682 226
63084 63542 330
