..................
----------------------------------------------------------------------
Ran 18 tests in 2.601s

OK
Name             Stmts   Miss Branch BrPart  Cover   Missing
------------------------------------------------------------
Collatz.py          84      0     18      0   100%
TestCollatz.py      82      0      0      0   100%
------------------------------------------------------------
TOTAL              166      0     18      0   100%