...............
----------------------------------------------------------------------
Ran 15 tests in 5.467s

OK
Name             Stmts   Miss Branch BrPart  Cover   Missing
------------------------------------------------------------
Collatz.py          31      0     12      0   100%
TestCollatz.py      63      0      0      0   100%
------------------------------------------------------------
TOTAL               94      0     12      0   100%
