1 10 20
100 200 125
201 210 89
900 1000 174
1000 1000 112
1 100 119
2 101 119
3 202 125
4 203 125
5 204 125
6 205 125
7 206 125
8 207 125
9 33 112
10 985 179
56 789 171
16 593 144
78 999 179
85 456 144
78 123 119
789 5223 238
77 8789 262
54 2853 209
1 1 1
12 123 119
20 256 128
1000 10 179
256 2 128
456 789 171
555 555 31
123 256 128
252 963 179
789 789 29
963 256 179
452 420 116
9663 10000 242
155 169 112
26 653 145
212 633 144
545 782 171
25 63 113
452 5556 238
420 629 142
852 6323 262
5220 4520 210
78 520 144
523 963 179
521 523 124
963 369 179
852 258 171
741 147 171
789 987 179
456 654 145
123 321 131
159 951 179
753 357 171
792 297 171
183 381 144
145 654 145
203 213 89
159 563 144
2222 2222 33
1234 5678 238
9876 6452 260
1265 4589 238
2036 1523 180
152 654 145
854 6532 262
875 632 179
159 745 171
106 956 179
7811 1645 262
2031 7822 262
1212 4563 238
1213 4254 238
1000 1026 156
1001 1027 156
1002 1234 182
103 4562 238
1234 5362 238
1026 6201 262
2556 1231 209
1520 6253 262
1213 7853 262
1256 7563 262
4586 6323 262
1 2 2
1 3 8
1 4 8
1 6 9
25 30 112
26 32 112
32 79 116
9634 356 262
506 354 142
506 789 171
1200 1 182
45654 45222 239
2306 2213 183
25236 25237 96
10234 20155 279
7852 10000 260
1532 15420 276
17896 1065 279
3456 5463 238
2056 3245 217
4568 9852 262
10456 10506 180
1234 5268 238
8756 2461 262
1247 8569 262
2365 7543 262
1489 5632 238
4789 5264 210
1423 9658 262
7854 8569 252
1254 2365 183
4587 5698 236
7854 8965 252
4521 5632 236
1201 2302 183
7420 8523 252
7412 8523 252
8523 8965 247
7456 9654 260
4123 6321 262
852 456 171
741 852 153
3652 4521 238
1203 3659 217
1452 2365 183
1253 7856 262
1121 2563 209
1045 5269 238
7459 5136 262
2065 2346 183
7849 562 262
1205 4589 238
7456 6589 257
1546 5455 238
1111 2222 182
3333 4444 238
7777 9999 260
8888 9999 260
66666 55555 335
11111 55555 340
1221 2332 183
4454 5565 210
6656 8898 257
1 999999 525
