1 10 20
100 200 125
201 210 89
900 1000 174
250 150 128
500 500 111
4000 5000 215
345 460 134
9 256 128
300 76 128
999900 999999 259
1 10000 262
800 800 29
200 1 125
999999 999990 259
10000 15000 276
850 300 171
13456 13765 245
200000 200500 342
18345 18330 168
769087 768777 331
990 1000 112
1500 1600 167
78000 80000 338
45678 45689 146
51000 49000 296
123000 123500 331
500000 500001 152
800000 799990 238
900 1000 174
300 200 128
10000 12000 268
101000 99000 341
1800 2000 175
600 650 145
19000 19500 212
430000 429500 281
9999 9999 92
900000 900009 189
935613 935000 414
492900 493000 214
265562 267000 332
369889 376633 423
932544 933000 370
193788 192000 347
901026 900000 401
873931 874000 326
216471 217000 342
180938 181000 272
662468 662500 155
50502 50000 265
885089 885000 295
738169 739000 424
211489 211500 174
540468 540470 116
36024 36000 218
299984 300000 234
18636 18636 155
105411 105400 248
298775 299000 371
320189 320200 203
633113 633000 310
945816 945900 277
216730 216750 231
575468 575500 222
581214 581250 204
800 850 135
900 950 174
700 650 145
1100 1150 151
1350 1400 159
77 100 119
812 900 179
1139 1200 182
423 450 116
860 900 179
143 150 117
405 400 28
789 800 122
1446 1500 172
112 100 114
851 850 60
1030 1000 156
1219 1250 177
419 420 41
1190 1200 120
1243 1300 177
306 350 144
1157 1150 151
125 125 109
1403 1400 128
485 500 142
129 150 122
1008 1000 143
47 50 105
641 650 145
336 350 126
551 600 137
1375 1400 159
886 900 148
699 800 171
1 100000 351
150000 151000 370
320000 319900 278
500000 500500 364
